amazon_m_0.edgelist m0.vect 0 .000001
5 0.896 29230
10 0.597 14653
15 0.393 7505
20 0.359 5529
25 0.315 4034
30 0.302 3244
35 0.292 2728
40 0.28 2310
45 0.276 2054
50 0.275 1851
55 0.271 1680
60 0.261 1480
65 0.25 1324
70 0.266 1304
75 0.27 1237
80 0.282 1207
85 0.293 1175
90 0.3 1132
95 0.306 1079
100 0.284 947
105 0.274 831
110 0.244 730
115 0.27 751
120 0.282 751
125 0.309 777
130 0.324 761
135 0.33 753
140 0.358 774
145 0.374 746
150 0.406 783
